{"response":{"status":"ok","userTier":"developer","total":628,"startIndex":1,"pageSize":10,"currentPage":1,"pages":63,"orderBy":"newest","results":[{"type":"article","sectionId":"technology","webTitle":"Apple removed drone-strike apps from App Store due to 'objectionable content'","webPublicationDate":"2015-09-30T21:06:00Z","id":"technology/2015/sep/30/apple-removing-drone-strikes-app","webUrl":"http://www.theguardian.com/technology/2015/sep/30/apple-removing-drone-strikes-app","apiUrl":"http://content.guardianapis.com/technology/2015/sep/30/apple-removing-drone-strikes-app","sectionName":"Technology"},{"type":"article","sectionId":"sport","webTitle":"England’s forward momentum holds key in do or die Australia battle | Robert Kitson","webPublicationDate":"2015-09-30T20:59:00Z","id":"sport/2015/sep/30/england-forward-momentum-australia-world-cup","webUrl":"http://www.theguardian.com/sport/2015/sep/30/england-forward-momentum-australia-world-cup","apiUrl":"http://content.guardianapis.com/sport/2015/sep/30/england-forward-momentum-australia-world-cup","sectionName":"Sport"},{"type":"article","sectionId":"football","webTitle":"Manchester United grateful to Chris Smalling as they see off Wolfsburg","webPublicationDate":"2015-09-30T20:49:34Z","id":"football/2015/sep/30/manchester-united-wolfsburg-champions-league-match-report","webUrl":"http://www.theguardian.com/football/2015/sep/30/manchester-united-wolfsburg-champions-league-match-report","apiUrl":"http://content.guardianapis.com/football/2015/sep/30/manchester-united-wolfsburg-champions-league-match-report","sectionName":"Football"},{"type":"article","sectionId":"football","webTitle":"Sergio Agüero seals late Manchester City win at Borussia Mönchengladbach","webPublicationDate":"2015-09-30T20:45:14Z","id":"football/2015/sep/30/borussia-monchengladbach-manchester-city-champions-league-match-report","webUrl":"http://www.theguardian.com/football/2015/sep/30/borussia-monchengladbach-manchester-city-champions-league-match-report","apiUrl":"http://content.guardianapis.com/football/2015/sep/30/borussia-monchengladbach-manchester-city-champions-league-match-report","sectionName":"Football"},{"type":"liveblog","sectionId":"football","webTitle":"Borussia Mönchengladbach v Manchester City: Champions League – as it happened","webPublicationDate":"2015-09-30T20:43:37Z","id":"football/live/2015/sep/30/borussia-monchengladbach-v-manchester-city-champions-league-live","webUrl":"http://www.theguardian.com/football/live/2015/sep/30/borussia-monchengladbach-v-manchester-city-champions-league-live","apiUrl":"http://content.guardianapis.com/football/live/2015/sep/30/borussia-monchengladbach-v-manchester-city-champions-league-live","sectionName":"Football"},{"type":"liveblog","sectionId":"football","webTitle":"Manchester United v Wolfsburg: Champions League – live!","webPublicationDate":"2015-09-30T20:36:46Z","id":"football/live/2015/sep/30/manchester-united-v-wolfsburg-champions-league-live","webUrl":"http://www.theguardian.com/football/live/2015/sep/30/manchester-united-v-wolfsburg-champions-league-live","apiUrl":"http://content.guardianapis.com/football/live/2015/sep/30/manchester-united-v-wolfsburg-champions-league-live","sectionName":"Football"},{"type":"article","sectionId":"world","webTitle":"Argentina warns US to cooperate in heightened search for fugitive spy chief","webPublicationDate":"2015-09-30T20:20:06Z","id":"world/2015/sep/30/argentina-cristina-fernandez-fugitive-spy-search-miami-antonio-stiuso","webUrl":"http://www.theguardian.com/world/2015/sep/30/argentina-cristina-fernandez-fugitive-spy-search-miami-antonio-stiuso","apiUrl":"http://content.guardianapis.com/world/2015/sep/30/argentina-cristina-fernandez-fugitive-spy-search-miami-antonio-stiuso","sectionName":"World news"},{"type":"article","sectionId":"politics","webTitle":"Labour split on defence grows as Eagle criticises Corbyn over Trident","webPublicationDate":"2015-09-30T20:18:13Z","id":"politics/2015/sep/30/labour-split-on-defence-grows-as-eagle-criticises-corbyn-over-trident","webUrl":"http://www.theguardian.com/politics/2015/sep/30/labour-split-on-defence-grows-as-eagle-criticises-corbyn-over-trident","apiUrl":"http://content.guardianapis.com/politics/2015/sep/30/labour-split-on-defence-grows-as-eagle-criticises-corbyn-over-trident","sectionName":"Politics"},{"type":"article","sectionId":"sport","webTitle":"Andrew Luck says he is 'day to day' with shoulder injury","webPublicationDate":"2015-09-30T20:13:30Z","id":"sport/2015/sep/30/andrew-luck-says-he-is-day-to-day-with-shoulder-injury","webUrl":"http://www.theguardian.com/sport/2015/sep/30/andrew-luck-says-he-is-day-to-day-with-shoulder-injury","apiUrl":"http://content.guardianapis.com/sport/2015/sep/30/andrew-luck-says-he-is-day-to-day-with-shoulder-injury","sectionName":"Sport"},{"type":"article","sectionId":"environment","webTitle":"Emissions target will require major changes to Direct Action, say experts","webPublicationDate":"2015-09-30T20:10:42Z","id":"environment/2015/oct/01/emissions-target-will-require-major-changes-to-direct-action-say-experts","webUrl":"http://www.theguardian.com/environment/2015/oct/01/emissions-target-will-require-major-changes-to-direct-action-say-experts","apiUrl":"http://content.guardianapis.com/environment/2015/oct/01/emissions-target-will-require-major-changes-to-direct-action-say-experts","sectionName":"Environment"}]}}